<?xml version="1.0" encoding="UTF-8" standalone="no"?>
<svg xmlns:svg="http://www.w3.org/2000/svg" xmlns="http://www.w3.org/2000/svg" version="1.1" width="1024" height="1024"
     viewBox="0 0 1024 1024">
  <path
    d="M128 575V491H896V575H128zM640 575V491H726V575H640zM640 917V831H726V917H640zM640 235V149H726V235H640zM810 405V319H896V405H810zM810 149H896V235H810V149zM810 575V491H896V575H810zM810 917V831H896V917H810zM470 917V149H554V917H470zM810 747V661H896V747H810zM298 235V149H384V235H298zM128 747V661H214V747H128zM128 917V831H214V917H128zM128 575V491H214V575H128zM298 575V491H384V575H298zM298 917V831H384V917H298zM128 235V149H214V235H128zM128 405V319H214V405H128z"
    id="uniE902"/>
</svg>