[
  {
    "tags": [],
    "description": {
      "full": "<h1>Prototypes</h1>\n<p>Prototypes allows to define <strong>prototypes</strong> property in Application configuration.</p>\n<pre><code class=\"lang-javascript\">Application ({\n prototypes: {\n   ClassName: options\n }\n})\n</code></pre>\n<p>If prototype is defined every new Object created by application will have this properties by default.</p>\n<pre><code class=\"lang-javascript\">  NewClass: {\n   $super: &quot;ParentClass&quot;,\n   type: &quot;new-class&quot;,\n   \\/*other properties and methods*\\/\n  }\n</code></pre>\n<p>if property <strong>type</strong> of Object class is defined then every object be default will have this type.</p>\n<pre><code class=\"lang-javascript\">  Object: {\n   type: &quot;rectangle&quot;\n  }\n...\n//rectangle will be created\nfabric.createObject({width:100, height: 100})\n</code></pre>",
      "summary": "<h1>Prototypes</h1>",
      "body": "<p>Prototypes allows to define <strong>prototypes</strong> property in Application configuration.</p>\n<pre><code class=\"lang-javascript\">Application ({\n prototypes: {\n   ClassName: options\n }\n})\n</code></pre>\n<p>If prototype is defined every new Object created by application will have this properties by default.</p>\n<pre><code class=\"lang-javascript\">  NewClass: {\n   $super: &quot;ParentClass&quot;,\n   type: &quot;new-class&quot;,\n   \\/*other properties and methods*\\/\n  }\n</code></pre>\n<p>if property <strong>type</strong> of Object class is defined then every object be default will have this type.</p>\n<pre><code class=\"lang-javascript\">  Object: {\n   type: &quot;rectangle&quot;\n  }\n...\n//rectangle will be created\nfabric.createObject({width:100, height: 100})\n</code></pre>"
    },
    "isPrivate": false,
    "isConstructor": false,
    "isClass": false,
    "isEvent": false,
    "ignore": false,
    "line": 1,
    "codeStart": 41,
    "code": "fabric.util.object.extend(fabric.Application.prototype, {\n  getDefaultProperties: function(proto){\n    if(!this.prototypes)return;\n\n    var klassname = fabric.util.string.capitalize(fabric.util.string.camelize(proto.type),true);\n\n    var _protoProperties = proto.__proto__ && proto.__proto__.type && this.getDefaultProperties(proto.__proto__) || {};\n    var _defaultProperties = fabric.util.object.clone(this.prototypes[klassname]);\n\n    fabric.util.object.extend(_protoProperties,_defaultProperties);\n\n    return _protoProperties;\n  },",
    "ctx": false
  },
  {
    "tags": [],
    "description": {
      "full": "<p>default prototypes propertes for objects</p>",
      "summary": "<p>default prototypes propertes for objects</p>",
      "body": ""
    },
    "isPrivate": false,
    "isConstructor": false,
    "isClass": false,
    "isEvent": false,
    "ignore": false,
    "line": 54,
    "codeStart": 57,
    "code": "prototypes: {\n  Object: {\n    includeDefaultValues: false\n  },\n  Canvas: {\n    includeDefaultValues: false\n  }\n},\nsetUtils: function (utilsOptions) {\n\n  if(!utilsOptions){\n    return;\n  }\n  fabric.util.object.extend(this.util || {},utilsOptions);\n\n  if (this.options['util']) {\n    fabric.util.object.extend(fabric.util, this.options['util']);\n  }\n  if (this.options['fabric']) {\n    fabric.util.object.extend(fabric, this.options['fabric']);\n  }\n  delete this.options['fabric'];\n  delete this.options['util'];\n},\nsetPrototypes: function (prototypes) {\n\n  var _prototypes = fabric.util.object.deepExtend({}, this.prototypes ,prototypes);\n\n  this.prototypes = _prototypes;\n  this.klasses = {};\n\n\n  if(_prototypes.eventListeners){\n    _prototypes.eventListeners.$extend = 'array';\n  }\n\n  for (var klassName in _prototypes) {\n    var _proto = _prototypes[klassName];\n\n    for (var j in _proto) {\n      if (_proto[j] && _proto[j][\"$extend\"]) {\n        var _extend = _proto[j][\"$extend\"];\n        if( _extend == \"array\"){\n          _proto[j] = fabric.util.object.extendArraysObject(fabric[klassName].prototype[j],_proto[j]);\n        } else if( _extend == \"deep\"){\n          _proto[j] = fabric.util.object.deepExtend(fabric[klassName].prototype[j],_proto[j]);\n        }else{\n          _proto[j] = fabric.util.object.extend(fabric[klassName].prototype[j],_proto[j]);\n        }\n        delete _proto[j][\"$extend\"];\n      }\n    }\n\n\n    if(_proto[\"$super\"]){\n      var _superklass = fabric[_proto[\"$super\"] || klassName] ;\n      delete _proto[\"$super\"];\n\n      var _fromObject = _proto.fromObject || _superklass.fromObject ;\n      delete _proto.fromObject;\n      var _klass = this.klasses[klassName] = fabric.util.createClass(_superklass, _proto);\n      _klass.fromObject = _fromObject.bind(_klass);\n    }\n\n  //   if (klassName.actions && _proto.actions.constructor == Function) {\n  //     fabric[klassName].prototype.actions = _proto.actions.call(fabric[klassName].prototype)\n  //   }\n  }\n\n  if (_prototypes.Application) {\n    fabric.util.object.deepExtend(this, _prototypes.Application);\n  }\n\n  // delete this.options['prototypes'];\n\n  if (this.actions && this.actions.constructor == Function) {\n    this.actions = this.actions.call(this)\n  }\n},\n\neventListeners: fabric.util.object.extendArraysObject(fabric.Application.prototype.eventListeners, {\n  \"entity:created\": function (e) {\n    var target = e.target;\n\n    target.application = this;\n    fabric.util.object.defaults(e.options, this.getDefaultProperties(target, e.options));\n\n    for (var key in e.options) {\n      var value = e.options[key];\n      if (key[0] == \"+\") {\n        var _key = key.substr(1);\n        var _arr = target.get(_key);\n        if (_arr instanceof Array) {\n          _arr = _arr.slice().concat(value);\n        } else {\n          _arr = fabric.util.object.extend({}, _arr, value);\n        }\n        e.options[_key] = _arr;\n        delete e.options[key];\n      }\n    }\n\n    delete e.options.type;\n    delete e.options.application;\n  }\n})\n});",
    "ctx": {
      "type": "property",
      "name": "prototypes",
      "value": "{",
      "string": "prototypes"
    }
  }
]